info face="Moon" size=86 bold=0 italic=0 charset="" unicode=0 stretchH=100 smooth=1 aa=1 padding=1,1,1,1 spacing=2,2
common lineHeight=90 base=81 scaleW=1024 scaleH=512 pages=1 packed=0
page id=0 file="label.png"
chars count=95
char id=32     x=892   y=200   width=0     height=0     xoffset=0     yoffset=72    xadvance=21    page=0 chnl=0 letter="space"
char id=33     x=452   y=200   width=9     height=64    xoffset=12    yoffset=8     xadvance=35    page=0 chnl=0 letter="!"
char id=34     x=771   y=200   width=21    height=17    xoffset=10    yoffset=8     xadvance=41    page=0 chnl=0 letter="""
char id=35     x=705   y=2     width=57    height=64    xoffset=0     yoffset=8     xadvance=60    page=0 chnl=0 letter="#"
char id=36     x=884   y=134   width=36    height=64    xoffset=3     yoffset=8     xadvance=44    page=0 chnl=0 letter="$"
char id=37     x=642   y=2     width=61    height=64    xoffset=3     yoffset=8     xadvance=66    page=0 chnl=0 letter="%"
char id=38     x=116   y=68    width=54    height=64    xoffset=2     yoffset=8     xadvance=56    page=0 chnl=0 letter="&"
char id=39     x=794   y=200   width=8     height=17    xoffset=11    yoffset=8     xadvance=29    page=0 chnl=0 letter="'"
char id=40     x=352   y=200   width=16    height=64    xoffset=11    yoffset=8     xadvance=37    page=0 chnl=0 letter="("
char id=41     x=370   y=200   width=16    height=64    xoffset=10    yoffset=8     xadvance=38    page=0 chnl=0 letter=")"
char id=42     x=679   y=200   width=25    height=25    xoffset=9     yoffset=8     xadvance=44    page=0 chnl=0 letter="*"
char id=43     x=565   y=200   width=32    height=32    xoffset=5     yoffset=23    xadvance=44    page=0 chnl=0 letter="+"
char id=44     x=804   y=200   width=8     height=17    xoffset=11    yoffset=55    xadvance=30    page=0 chnl=0 letter=","
char id=45     x=848   y=200   width=32    height=8     xoffset=6     yoffset=35    xadvance=45    page=0 chnl=0 letter="-"
char id=46     x=882   y=200   width=8     height=8     xoffset=8     yoffset=64    xadvance=25    page=0 chnl=0 letter="."
char id=47     x=422   y=200   width=13    height=64    xoffset=11    yoffset=8     xadvance=36    page=0 chnl=0 letter="/"
char id=48     x=922   y=134   width=36    height=64    xoffset=7     yoffset=8     xadvance=46    page=0 chnl=0 letter="0"
char id=49     x=279   y=200   width=23    height=64    xoffset=10    yoffset=8     xadvance=46    page=0 chnl=0 letter="1"
char id=50     x=806   y=134   width=37    height=64    xoffset=7     yoffset=8     xadvance=46    page=0 chnl=0 letter="2"
char id=51     x=78    y=200   width=36    height=64    xoffset=8     yoffset=8     xadvance=46    page=0 chnl=0 letter="3"
char id=52     x=192   y=200   width=35    height=64    xoffset=5     yoffset=8     xadvance=46    page=0 chnl=0 letter="4"
char id=53     x=154   y=200   width=36    height=64    xoffset=7     yoffset=8     xadvance=46    page=0 chnl=0 letter="5"
char id=54     x=960   y=134   width=36    height=64    xoffset=7     yoffset=8     xadvance=46    page=0 chnl=0 letter="6"
char id=55     x=845   y=134   width=37    height=64    xoffset=6     yoffset=8     xadvance=46    page=0 chnl=0 letter="7"
char id=56     x=40    y=200   width=36    height=64    xoffset=7     yoffset=8     xadvance=46    page=0 chnl=0 letter="8"
char id=57     x=2     y=200   width=36    height=64    xoffset=8     yoffset=8     xadvance=46    page=0 chnl=0 letter="9"
char id=58     x=599   y=200   width=8     height=32    xoffset=4     yoffset=24    xadvance=18    page=0 chnl=0 letter=":"
char id=59     x=495   y=200   width=8     height=38    xoffset=5     yoffset=24    xadvance=19    page=0 chnl=0 letter=";"
char id=60     x=505   y=200   width=28    height=34    xoffset=0     yoffset=23    xadvance=32    page=0 chnl=0 letter="<"
char id=61     x=645   y=200   width=32    height=26    xoffset=3     yoffset=27    xadvance=38    page=0 chnl=0 letter="="
char id=62     x=535   y=200   width=28    height=34    xoffset=3     yoffset=23    xadvance=32    page=0 chnl=0 letter=">"
char id=63     x=116   y=200   width=36    height=64    xoffset=3     yoffset=8     xadvance=42    page=0 chnl=0 letter="?"
char id=64     x=314   y=2     width=64    height=64    xoffset=3     yoffset=8     xadvance=72    page=0 chnl=0 letter="@"
char id=65     x=935   y=2     width=55    height=64    xoffset=1     yoffset=8     xadvance=56    page=0 chnl=0 letter="A"
char id=66     x=236   y=134   width=44    height=64    xoffset=4     yoffset=8     xadvance=52    page=0 chnl=0 letter="B"
char id=67     x=878   y=2     width=55    height=64    xoffset=0     yoffset=8     xadvance=56    page=0 chnl=0 letter="C"
char id=68     x=546   y=68    width=50    height=64    xoffset=4     yoffset=8     xadvance=58    page=0 chnl=0 letter="D"
char id=69     x=550   y=134   width=42    height=64    xoffset=4     yoffset=8     xadvance=47    page=0 chnl=0 letter="E"
char id=70     x=594   y=134   width=42    height=64    xoffset=4     yoffset=8     xadvance=46    page=0 chnl=0 letter="F"
char id=71     x=821   y=2     width=55    height=64    xoffset=0     yoffset=8     xadvance=59    page=0 chnl=0 letter="G"
char id=72     x=748   y=68    width=48    height=64    xoffset=5     yoffset=8     xadvance=58    page=0 chnl=0 letter="H"
char id=73     x=463   y=200   width=9     height=64    xoffset=5     yoffset=8     xadvance=19    page=0 chnl=0 letter="I"
char id=74     x=254   y=200   width=23    height=64    xoffset=-2    yoffset=8     xadvance=26    page=0 chnl=0 letter="J"
char id=75     x=96    y=134   width=45    height=64    xoffset=5     yoffset=8     xadvance=50    page=0 chnl=0 letter="K"
char id=76     x=766   y=134   width=38    height=64    xoffset=4     yoffset=8     xadvance=43    page=0 chnl=0 letter="L"
char id=77     x=512   y=2     width=63    height=64    xoffset=4     yoffset=8     xadvance=73    page=0 chnl=0 letter="M"
char id=78     x=388   y=68    width=51    height=64    xoffset=4     yoffset=8     xadvance=61    page=0 chnl=0 letter="N"
char id=79     x=380   y=2     width=64    height=64    xoffset=0     yoffset=8     xadvance=68    page=0 chnl=0 letter="O"
char id=80     x=372   y=134   width=43    height=64    xoffset=4     yoffset=8     xadvance=50    page=0 chnl=0 letter="P"
char id=81     x=180   y=2     width=65    height=64    xoffset=0     yoffset=8     xadvance=68    page=0 chnl=0 letter="Q"
char id=82     x=327   y=134   width=43    height=64    xoffset=4     yoffset=8     xadvance=49    page=0 chnl=0 letter="R"
char id=83     x=506   y=134   width=42    height=64    xoffset=2     yoffset=8     xadvance=47    page=0 chnl=0 letter="S"
char id=84     x=898   y=68    width=47    height=64    xoffset=-1    yoffset=8     xadvance=45    page=0 chnl=0 letter="T"
char id=85     x=49    y=134   width=45    height=64    xoffset=4     yoffset=8     xadvance=53    page=0 chnl=0 letter="U"
char id=86     x=648   y=68    width=48    height=64    xoffset=1     yoffset=8     xadvance=49    page=0 chnl=0 letter="V"
char id=87     x=2     y=2     width=87    height=64    xoffset=1     yoffset=8     xadvance=88    page=0 chnl=0 letter="W"
char id=88     x=698   y=68    width=48    height=64    xoffset=2     yoffset=8     xadvance=50    page=0 chnl=0 letter="X"
char id=89     x=335   y=68    width=51    height=64    xoffset=0     yoffset=8     xadvance=52    page=0 chnl=0 letter="Y"
char id=90     x=172   y=68    width=53    height=64    xoffset=0     yoffset=8     xadvance=53    page=0 chnl=0 letter="Z"
char id=91     x=388   y=200   width=15    height=64    xoffset=0     yoffset=8     xadvance=23    page=0 chnl=0 letter="["
char id=92     x=437   y=200   width=13    height=64    xoffset=-0    yoffset=8     xadvance=15    page=0 chnl=0 letter="\"
char id=93     x=405   y=200   width=15    height=64    xoffset=0     yoffset=8     xadvance=23    page=0 chnl=0 letter="]"
char id=94     x=609   y=200   width=34    height=28    xoffset=-0    yoffset=9     xadvance=34    page=0 chnl=0 letter="^"
char id=95     x=814   y=200   width=32    height=8     xoffset=0     yoffset=66    xadvance=32    page=0 chnl=0 letter="_"
char id=96     x=706   y=200   width=23    height=18    xoffset=9     yoffset=9     xadvance=43    page=0 chnl=0 letter="`"
char id=97     x=59    y=68    width=55    height=64    xoffset=4     yoffset=8     xadvance=58    page=0 chnl=0 letter="a"
char id=98     x=190   y=134   width=44    height=64    xoffset=7     yoffset=8     xadvance=56    page=0 chnl=0 letter="b"
char id=99     x=2     y=68    width=55    height=64    xoffset=4     yoffset=8     xadvance=60    page=0 chnl=0 letter="c"
char id=100    x=494   y=68    width=50    height=64    xoffset=8     yoffset=8     xadvance=61    page=0 chnl=0 letter="d"
char id=101    x=638   y=134   width=42    height=64    xoffset=7     yoffset=8     xadvance=51    page=0 chnl=0 letter="e"
char id=102    x=462   y=134   width=42    height=64    xoffset=7     yoffset=8     xadvance=48    page=0 chnl=0 letter="f"
char id=103    x=764   y=2     width=55    height=64    xoffset=4     yoffset=8     xadvance=64    page=0 chnl=0 letter="g"
char id=104    x=598   y=68    width=48    height=64    xoffset=7     yoffset=8     xadvance=61    page=0 chnl=0 letter="h"
char id=105    x=474   y=200   width=9     height=64    xoffset=8     yoffset=8     xadvance=22    page=0 chnl=0 letter="i"
char id=106    x=229   y=200   width=23    height=64    xoffset=1     yoffset=8     xadvance=29    page=0 chnl=0 letter="j"
char id=107    x=2     y=134   width=45    height=64    xoffset=7     yoffset=8     xadvance=53    page=0 chnl=0 letter="k"
char id=108    x=726   y=134   width=38    height=64    xoffset=8     yoffset=8     xadvance=45    page=0 chnl=0 letter="l"
char id=109    x=577   y=2     width=63    height=64    xoffset=7     yoffset=8     xadvance=76    page=0 chnl=0 letter="m"
char id=110    x=441   y=68    width=51    height=64    xoffset=7     yoffset=8     xadvance=64    page=0 chnl=0 letter="n"
char id=111    x=446   y=2     width=64    height=64    xoffset=3     yoffset=8     xadvance=70    page=0 chnl=0 letter="o"
char id=112    x=282   y=134   width=43    height=64    xoffset=7     yoffset=8     xadvance=52    page=0 chnl=0 letter="p"
char id=113    x=247   y=2     width=65    height=64    xoffset=4     yoffset=8     xadvance=72    page=0 chnl=0 letter="q"
char id=114    x=417   y=134   width=43    height=64    xoffset=7     yoffset=8     xadvance=53    page=0 chnl=0 letter="r"
char id=115    x=682   y=134   width=42    height=64    xoffset=5     yoffset=8     xadvance=51    page=0 chnl=0 letter="s"
char id=116    x=947   y=68    width=47    height=64    xoffset=1     yoffset=8     xadvance=47    page=0 chnl=0 letter="t"
char id=117    x=143   y=134   width=45    height=64    xoffset=6     yoffset=8     xadvance=56    page=0 chnl=0 letter="u"
char id=118    x=798   y=68    width=48    height=64    xoffset=3     yoffset=8     xadvance=51    page=0 chnl=0 letter="v"
char id=119    x=91    y=2     width=87    height=64    xoffset=3     yoffset=8     xadvance=89    page=0 chnl=0 letter="w"
char id=120    x=848   y=68    width=48    height=64    xoffset=4     yoffset=8     xadvance=54    page=0 chnl=0 letter="x"
char id=121    x=282   y=68    width=51    height=64    xoffset=3     yoffset=8     xadvance=54    page=0 chnl=0 letter="y"
char id=122    x=227   y=68    width=53    height=64    xoffset=3     yoffset=8     xadvance=57    page=0 chnl=0 letter="z"
char id=123    x=304   y=200   width=22    height=64    xoffset=0     yoffset=8     xadvance=23    page=0 chnl=0 letter="{"
char id=124    x=485   y=200   width=8     height=64    xoffset=0     yoffset=8     xadvance=10    page=0 chnl=0 letter="|"
char id=125    x=328   y=200   width=22    height=64    xoffset=-0    yoffset=8     xadvance=23    page=0 chnl=0 letter="}"
char id=126    x=731   y=200   width=38    height=17    xoffset=4     yoffset=32    xadvance=43    page=0 chnl=0 letter="~"
