info face="Moon" size=42 bold=1 italic=0 charset="" unicode=0 stretchH=100 smooth=1 aa=1 padding=1,1,1,1 spacing=2,2
common lineHeight=44 base=40 scaleW=128 scaleH=128 pages=1 packed=0
page id=0 file="numBold.png"
chars count=14
char id=32     x=22    y=72    width=0     height=0     xoffset=0     yoffset=35    xadvance=10    page=0 chnl=0 letter="space"
char id=46     x=12    y=72    width=8     height=8     xoffset=5     yoffset=27    xadvance=15    page=0 chnl=0 letter="."
char id=47     x=110   y=37    width=10    height=33    xoffset=6     yoffset=2     xadvance=21    page=0 chnl=0 letter="/"
char id=48     x=48    y=2     width=21    height=33    xoffset=4     yoffset=2     xadvance=24    page=0 chnl=0 letter="0"
char id=49     x=93    y=37    width=15    height=33    xoffset=5     yoffset=2     xadvance=24    page=0 chnl=0 letter="1"
char id=50     x=2     y=2     width=21    height=33    xoffset=4     yoffset=2     xadvance=24    page=0 chnl=0 letter="2"
char id=51     x=71    y=2     width=21    height=33    xoffset=4     yoffset=2     xadvance=24    page=0 chnl=0 letter="3"
char id=52     x=71    y=37    width=20    height=33    xoffset=2     yoffset=2     xadvance=24    page=0 chnl=0 letter="4"
char id=53     x=94    y=2     width=21    height=33    xoffset=4     yoffset=2     xadvance=24    page=0 chnl=0 letter="5"
char id=54     x=2     y=37    width=21    height=33    xoffset=4     yoffset=2     xadvance=24    page=0 chnl=0 letter="6"
char id=55     x=25    y=2     width=21    height=33    xoffset=3     yoffset=2     xadvance=24    page=0 chnl=0 letter="7"
char id=56     x=25    y=37    width=21    height=33    xoffset=4     yoffset=2     xadvance=24    page=0 chnl=0 letter="8"
char id=57     x=48    y=37    width=21    height=33    xoffset=4     yoffset=2     xadvance=24    page=0 chnl=0 letter="9"
char id=58     x=2     y=72    width=8     height=19    xoffset=2     yoffset=9     xadvance=11    page=0 chnl=0 letter=":"
